{
  "nixpkgs": {
    "branch": "nixos-23.05",
    "description": "Nix Packages collection",
    "homepage": "",
    "owner": "NixOS",
    "repo": "nixpkgs",
    "rev": "261abe8a44a7e8392598d038d2e01f7b33cf26d0",
    "sha256": "1hpjj75s3xvngn48q27q78syrlg2yfac5hmk2573z6089ajpaxli",
    "type": "tarball",
    "url": "https://github.com/NixOS/nixpkgs/archive/261abe8a44a7e8392598d038d2e01f7b33cf26d0.tar.gz",
    "url_template": "https://github.com/<owner>/<repo>/archive/<rev>.tar.gz"
  }
}
